…
```
## # A tibble: 2,800 x 14
##    id    gender education   age A_mean  A_sd C_mean  C_sd E_mean  E_sd N_mean
##    <chr>  <int>     <int> <int>  <dbl> <dbl>  <dbl> <dbl>  <dbl> <dbl>  <dbl>
##  1 61617      1        NA    16    3.4 0.894    3.2 0.837   3.4  0.548    2.8
##  2 61618      2        NA    18    3.6 1.52     4   0.707   3    2.12     3.8
##  3 61620      2        NA    17    4.4 0.548    4   1.22    3.8  1.10     3.6
##  4 61621      2        NA    17    4.8 0.837    4.2 0.837   4    0.707    2.8
##  5 61622      1        NA    17    3.4 1.14     3.6 1.14    3.6  1.52     3.2
##  6 61623      2         3    21    5.6 0.548    4.4 2.30    4    2.35     3  
##  7 61624      1        NA    18    4   1.41     3.6 1.14    4.2  0.837    1.4
##  8 61629      1         2    19    2.8 1.79     3   1       3.2  1.92     4.2
##  9 61630      1         1    19    3.8 1.30     4.8 1.30    3.75 0.957    3.6
## 10 61633      2        NA    17    4.8 1.64     4   2.35    3.6  1.52     4.2
## # ... with 2,790 more rows, and 3 more variables: N_sd <dbl>, O_mean <dbl>,
## #   O_sd <dbl>
```
…
_Dialogue:_
  
Although individuals' average scores of three of the Big 5 traits (Openness, Extraversion, and Conscientiousness) have similar peaks and ranges, the average scores for Neuroticism form a much flatter distribution.
  
### Task Option 9

Work with `psych::bfi`. Using the composite scores from Task 7, explore how age
is related to the different personality variables. Does personality appear to 
change for different ages?
  
_Tibble:_
  

```
## # A tibble: 2,800 x 12
##    id      age A_mean  A_sd C_mean  C_sd E_mean  E_sd N_mean  N_sd O_mean  O_sd
##    <chr> <int>  <dbl> <dbl>  <dbl> <dbl>  <dbl> <dbl>  <dbl> <dbl>  <dbl> <dbl>
##  1 61617    16    3.4 0.894    3.2 0.837   3.4  0.548    2.8 0.837    3.8 1.30 
##  2 61618    18    3.6 1.52     4   0.707   3    2.12     3.8 1.10     3.2 0.837
##  3 61620    17    4.4 0.548    4   1.22    3.8  1.10     3.6 1.14     3.6 1.52 
##  4 61621    17    4.8 0.837    4.2 0.837   4    0.707    2.8 1.64     3.6 0.894
##  5 61622    17    3.4 1.14     3.6 1.14    3.6  1.52     3.2 0.837    3.2 0.447
##  6 61623    21    5.6 0.548    4.4 2.30    4    2.35     3   1.22     3.8 1.92 
##  7 61624    18    4   1.41     3.6 1.14    4.2  0.837    1.4 0.548    3.8 2.17 
##  8 61629    19    2.8 1.79     3   1       3.2  1.92     4.2 1.79     3.4 1.14 
##  9 61630    19    3.8 1.30     4.8 1.30    3.75 0.957    3.6 1.34     5   2.24 
## 10 61633    17    4.8 1.64     4   2.35    3.6  1.52     4.2 1.30     3.6 1.95 
## # ... with 2,790 more rows
```
…
